<?xml version="1.0" encoding="utf-8"?>
<!-- Generator: Adobe Illustrator 21.0.0, SVG Export Plug-In . SVG Version: 6.00 Build 0)  -->
<svg version="1.1" id="Layer_1" xmlns="http://www.w3.org/2000/svg" xmlns:xlink="http://www.w3.org/1999/xlink" x="0px" y="0px"
	 viewBox="0 0 307 135.7" style="enable-background:new 0 0 307 135.7;" xml:space="preserve">
<style type="text/css">
	.st0{fill:#F2BD48;stroke:#FFFFFF;stroke-width:2;stroke-miterlimit:10;}
</style>
<path class="st0" d="M280.1,124.6L55.5,134.7c-2.8,0-5-2.2-5-5L1,6c0-2.8,2.2-5,5-5l295,20c2.8,0,5,2.2,5,5l-20.8,93.5
	C285.1,122.3,282.9,124.6,280.1,124.6z"/>
</svg>
