<?xml version="1.0" encoding="utf-8"?>
<!-- Generator: Adobe Illustrator 21.0.0, SVG Export Plug-In . SVG Version: 6.00 Build 0)  -->
<svg version="1.1" id="Layer_1" xmlns="http://www.w3.org/2000/svg" xmlns:xlink="http://www.w3.org/1999/xlink" x="0px" y="0px"
	 viewBox="0 0 121.2 57" style="enable-background:new 0 0 121.2 57;" xml:space="preserve">
<style type="text/css">
	.st0{fill:#FFFFFF;}
</style>
<g>
	<g>
		<path class="st0" d="M115,46.6h-12.3c-0.9,0-1.7-0.6-2-1.4c-1.1-3-4.4-4.6-7.5-3.6c-1.7,0.6-3,1.9-3.6,3.6c-0.3,0.8-1.1,1.4-2,1.4
			H76.6c-1.2,0-2.1-0.9-2.1-2.1V11.6c0-3.5,2.8-6.3,6.3-6.3h19.8c2.4,0,4.6,1.3,5.6,3.5l3.7,12.3c0.2,0.3,0.5,0.5,0.8,0.6l7.1,3.5
			c2.1,1.1,3.5,3.2,3.5,5.6v9.2c0.1,3.5-2.6,6.4-6.1,6.5C115.1,46.6,115,46.6,115,46.6z M104.1,42.4H115c1.2,0,2.1-0.9,2.1-2.1v-9.2
			c0-0.8-0.5-1.5-1.2-1.8l-7.1-3.6c-1.2-0.6-2.2-1.6-2.8-2.8l-3.7-12.5c-0.4-0.5-1.1-0.8-1.8-0.8H80.8c-1.2,0-2.1,0.9-2.1,2.1v30.8
			h7.7c1.7-3.3,5.1-5.3,8.8-5.3C98.9,37.1,102.3,39.1,104.1,42.4z"/>
	</g>
	<g>
		<path class="st0" d="M95.2,57c-5.6,0-10.1-4.5-10.1-10.1c0-1.1,0.2-2.3,0.6-3.3c1.8-5.2,7.6-8,12.8-6.2c2.9,1,5.1,3.3,6.2,6.2l0,0
			c0.4,1.1,0.6,2.2,0.6,3.3C105.3,52.5,100.8,57,95.2,57z M95.2,41.1c-2.5,0-4.7,1.6-5.5,3.9c-0.2,0.6-0.4,1.3-0.4,2
			c0,3.3,2.6,5.9,5.9,5.9c3.3,0,5.9-2.6,5.9-5.9c0-0.7-0.1-1.3-0.4-2l0,0C99.9,42.6,97.7,41.1,95.2,41.1z"/>
	</g>
	<g>
		<path class="st0" d="M76.6,46.6H44.1c-0.9,0-1.7-0.6-2-1.4c-1.1-3-4.4-4.6-7.5-3.6c-1.7,0.6-3,1.9-3.6,3.6c-0.3,0.8-1.1,1.4-2,1.4
			h-5.8c-1.2,0-2.1-0.9-2.1-2.1s0.9-2.1,2.1-2.1h4.5c1.7-3.3,5.1-5.3,8.8-5.3c3.7,0,7.1,2.1,8.9,5.3h29V6.3c0-1.1-0.9-2.1-2.1-2.1
			H2.1C0.9,4.2,0,3.2,0,2.1S0.9,0,2.1,0h70.3c3.5,0,6.3,2.8,6.3,6.3v38c0.1,1.1-0.7,2.2-1.9,2.3C76.7,46.6,76.7,46.6,76.6,46.6z"/>
	</g>
	<g>
		<path class="st0" d="M36.7,57c-5.6,0-10.1-4.5-10.1-10.1c0-1.1,0.2-2.3,0.6-3.3c1.8-5.2,7.6-8,12.8-6.2c2.9,1,5.1,3.3,6.2,6.2l0,0
			c0.4,1.1,0.6,2.2,0.6,3.3C46.7,52.5,42.2,57,36.7,57L36.7,57z M36.7,41.1c-2.4,0.1-4.5,1.7-5.3,3.9c-0.2,0.6-0.4,1.3-0.4,2
			c0,3.3,2.6,5.9,5.9,5.9c3.3,0,5.9-2.6,5.9-5.9c0-0.7-0.1-1.3-0.4-2l0,0C41.5,42.6,39.2,41,36.7,41.1z"/>
	</g>
	<g>
		<path class="st0" d="M28.7,19.4H7.4c-1.2,0-2.1-0.9-2.1-2.1c0-1.2,0.9-2.1,2.1-2.1h21.3c1.2,0,2.1,0.9,2.1,2.1
			C30.8,18.5,29.8,19.4,28.7,19.4z"/>
	</g>
	<g>
		<path class="st0" d="M39.3,30.4H12.8c-1.2,0-2.1-0.9-2.1-2.1s0.9-2.1,2.1-2.1h26.6c1.2,0,2.1,0.9,2.1,2.1S40.5,30.4,39.3,30.4z"/>
	</g>
</g>
</svg>
