<?xml version="1.0" encoding="utf-8"?>
<!-- Generator: Adobe Illustrator 21.0.0, SVG Export Plug-In . SVG Version: 6.00 Build 0)  -->
<svg version="1.1" id="Layer_1" xmlns="http://www.w3.org/2000/svg" xmlns:xlink="http://www.w3.org/1999/xlink" x="0px" y="0px"
	 viewBox="0 0 1234 8" style="enable-background:new 0 0 1234 8;" xml:space="preserve">
<style type="text/css">
	.st0{fill:#F4C038;}
</style>
<circle class="st0" cx="6.2" cy="4" r="1.9"/>
<circle class="st0" cx="16.5" cy="4" r="1.9"/>
<circle class="st0" cx="26.8" cy="4" r="1.9"/>
<circle class="st0" cx="37.2" cy="4" r="1.9"/>
<circle class="st0" cx="47.5" cy="4" r="1.9"/>
<circle class="st0" cx="57.9" cy="4" r="1.9"/>
<circle class="st0" cx="6.2" cy="4" r="1.9"/>
<circle class="st0" cx="16.5" cy="4" r="1.9"/>
<circle class="st0" cx="26.8" cy="4" r="1.9"/>
<circle class="st0" cx="37.2" cy="4" r="1.9"/>
<circle class="st0" cx="47.5" cy="4" r="1.9"/>
<circle class="st0" cx="57.9" cy="4" r="1.9"/>
<circle class="st0" cx="68.2" cy="4" r="1.9"/>
<circle class="st0" cx="78.6" cy="4" r="1.9"/>
<circle class="st0" cx="88.9" cy="4" r="1.9"/>
<circle class="st0" cx="99.2" cy="4" r="1.9"/>
<circle class="st0" cx="109.6" cy="4" r="1.9"/>
<circle class="st0" cx="119.9" cy="4" r="1.9"/>
<circle class="st0" cx="130.3" cy="4" r="1.9"/>
<circle class="st0" cx="140.6" cy="4" r="1.9"/>
<circle class="st0" cx="151" cy="4" r="1.9"/>
<circle class="st0" cx="161.3" cy="4" r="1.9"/>
<circle class="st0" cx="171.6" cy="4" r="1.9"/>
<circle class="st0" cx="182" cy="4" r="1.9"/>
<circle class="st0" cx="130.3" cy="4" r="1.9"/>
<circle class="st0" cx="140.6" cy="4" r="1.9"/>
<circle class="st0" cx="151" cy="4" r="1.9"/>
<circle class="st0" cx="161.3" cy="4" r="1.9"/>
<circle class="st0" cx="171.6" cy="4" r="1.9"/>
<circle class="st0" cx="182" cy="4" r="1.9"/>
<circle class="st0" cx="192.3" cy="4" r="1.9"/>
<circle class="st0" cx="202.7" cy="4" r="1.9"/>
<circle class="st0" cx="213" cy="4" r="1.9"/>
<circle class="st0" cx="223.3" cy="4" r="1.9"/>
<circle class="st0" cx="233.7" cy="4" r="1.9"/>
<circle class="st0" cx="244" cy="4" r="1.9"/>
<circle class="st0" cx="254.4" cy="4" r="1.9"/>
<circle class="st0" cx="264.7" cy="4" r="1.9"/>
<circle class="st0" cx="275.1" cy="4" r="1.9"/>
<circle class="st0" cx="285.4" cy="4" r="1.9"/>
<circle class="st0" cx="295.7" cy="4" r="1.9"/>
<circle class="st0" cx="306.1" cy="4" r="1.9"/>
<circle class="st0" cx="254.4" cy="4" r="1.9"/>
<circle class="st0" cx="264.7" cy="4" r="1.9"/>
<circle class="st0" cx="275.1" cy="4" r="1.9"/>
<circle class="st0" cx="285.4" cy="4" r="1.9"/>
<circle class="st0" cx="295.7" cy="4" r="1.9"/>
<circle class="st0" cx="306.1" cy="4" r="1.9"/>
<circle class="st0" cx="316.4" cy="4" r="1.9"/>
<circle class="st0" cx="326.8" cy="4" r="1.9"/>
<circle class="st0" cx="337.1" cy="4" r="1.9"/>
<circle class="st0" cx="347.5" cy="4" r="1.9"/>
<circle class="st0" cx="357.8" cy="4" r="1.9"/>
<circle class="st0" cx="368.1" cy="4" r="1.9"/>
<circle class="st0" cx="378.5" cy="4" r="1.9"/>
<circle class="st0" cx="388.8" cy="4" r="1.9"/>
<circle class="st0" cx="399.2" cy="4" r="1.9"/>
<circle class="st0" cx="409.5" cy="4" r="1.9"/>
<circle class="st0" cx="419.9" cy="4" r="1.9"/>
<circle class="st0" cx="430.2" cy="4" r="1.9"/>
<circle class="st0" cx="378.5" cy="4" r="1.9"/>
<circle class="st0" cx="388.8" cy="4" r="1.9"/>
<circle class="st0" cx="399.2" cy="4" r="1.9"/>
<circle class="st0" cx="409.5" cy="4" r="1.9"/>
<circle class="st0" cx="419.9" cy="4" r="1.9"/>
<circle class="st0" cx="430.2" cy="4" r="1.9"/>
<circle class="st0" cx="440.5" cy="4" r="1.9"/>
<circle class="st0" cx="450.9" cy="4" r="1.9"/>
<circle class="st0" cx="461.2" cy="4" r="1.9"/>
<circle class="st0" cx="471.6" cy="4" r="1.9"/>
<circle class="st0" cx="481.9" cy="4" r="1.9"/>
<circle class="st0" cx="492.2" cy="4" r="1.9"/>
<circle class="st0" cx="502.6" cy="4" r="1.9"/>
<circle class="st0" cx="512.9" cy="4" r="1.9"/>
<circle class="st0" cx="523.3" cy="4" r="1.9"/>
<circle class="st0" cx="533.6" cy="4" r="1.9"/>
<circle class="st0" cx="544" cy="4" r="1.9"/>
<circle class="st0" cx="554.3" cy="4" r="1.9"/>
<circle class="st0" cx="502.6" cy="4" r="1.9"/>
<circle class="st0" cx="512.9" cy="4" r="1.9"/>
<circle class="st0" cx="523.3" cy="4" r="1.9"/>
<circle class="st0" cx="533.6" cy="4" r="1.9"/>
<circle class="st0" cx="544" cy="4" r="1.9"/>
<circle class="st0" cx="554.3" cy="4" r="1.9"/>
<circle class="st0" cx="564.6" cy="4" r="1.9"/>
<circle class="st0" cx="575" cy="4" r="1.9"/>
<circle class="st0" cx="585.3" cy="4" r="1.9"/>
<circle class="st0" cx="595.7" cy="4" r="1.9"/>
<circle class="st0" cx="606" cy="4" r="1.9"/>
<circle class="st0" cx="616.4" cy="4" r="1.9"/>
<circle class="st0" cx="626.7" cy="4" r="1.9"/>
<circle class="st0" cx="637" cy="4" r="1.9"/>
<circle class="st0" cx="647.4" cy="4" r="1.9"/>
<circle class="st0" cx="657.7" cy="4" r="1.9"/>
<circle class="st0" cx="668.1" cy="4" r="1.9"/>
<circle class="st0" cx="678.4" cy="4" r="1.9"/>
<circle class="st0" cx="626.7" cy="4" r="1.9"/>
<circle class="st0" cx="637" cy="4" r="1.9"/>
<circle class="st0" cx="647.4" cy="4" r="1.9"/>
<circle class="st0" cx="657.7" cy="4" r="1.9"/>
<circle class="st0" cx="668.1" cy="4" r="1.9"/>
<circle class="st0" cx="678.4" cy="4" r="1.9"/>
<circle class="st0" cx="688.8" cy="4" r="1.9"/>
<circle class="st0" cx="699.1" cy="4" r="1.9"/>
<circle class="st0" cx="709.4" cy="4" r="1.9"/>
<circle class="st0" cx="719.8" cy="4" r="1.9"/>
<circle class="st0" cx="730.1" cy="4" r="1.9"/>
<circle class="st0" cx="740.5" cy="4" r="1.9"/>
<circle class="st0" cx="750.8" cy="4" r="1.9"/>
<circle class="st0" cx="761.1" cy="4" r="1.9"/>
<circle class="st0" cx="771.5" cy="4" r="1.9"/>
<circle class="st0" cx="781.8" cy="4" r="1.9"/>
<circle class="st0" cx="792.2" cy="4" r="1.9"/>
<circle class="st0" cx="750.8" cy="4" r="1.9"/>
<circle class="st0" cx="761.1" cy="4" r="1.9"/>
<circle class="st0" cx="771.5" cy="4" r="1.9"/>
<circle class="st0" cx="781.8" cy="4" r="1.9"/>
<circle class="st0" cx="792.2" cy="4" r="1.9"/>
<circle class="st0" cx="802.9" cy="4" r="1.9"/>
<circle class="st0" cx="813.2" cy="4" r="1.9"/>
<circle class="st0" cx="802.9" cy="4" r="1.9"/>
<circle class="st0" cx="813.2" cy="4" r="1.9"/>
<circle class="st0" cx="823.5" cy="4" r="1.9"/>
<circle class="st0" cx="833.9" cy="4" r="1.9"/>
<circle class="st0" cx="844.2" cy="4" r="1.9"/>
<circle class="st0" cx="854.6" cy="4" r="1.9"/>
<circle class="st0" cx="864.9" cy="4" r="1.9"/>
<circle class="st0" cx="875.3" cy="4" r="1.9"/>
<circle class="st0" cx="885.6" cy="4" r="1.9"/>
<circle class="st0" cx="895.9" cy="4" r="1.9"/>
<circle class="st0" cx="906.3" cy="4" r="1.9"/>
<circle class="st0" cx="916.6" cy="4" r="1.9"/>
<circle class="st0" cx="927" cy="4" r="1.9"/>
<circle class="st0" cx="937.3" cy="4" r="1.9"/>
<circle class="st0" cx="885.6" cy="4" r="1.9"/>
<circle class="st0" cx="895.9" cy="4" r="1.9"/>
<circle class="st0" cx="906.3" cy="4" r="1.9"/>
<circle class="st0" cx="916.6" cy="4" r="1.9"/>
<circle class="st0" cx="927" cy="4" r="1.9"/>
<circle class="st0" cx="937.3" cy="4" r="1.9"/>
<circle class="st0" cx="947.7" cy="4" r="1.9"/>
<circle class="st0" cx="958" cy="4" r="1.9"/>
<circle class="st0" cx="968.3" cy="4" r="1.9"/>
<circle class="st0" cx="978.7" cy="4" r="1.9"/>
<circle class="st0" cx="989" cy="4" r="1.9"/>
<circle class="st0" cx="999.4" cy="4" r="1.9"/>
<circle class="st0" cx="1009.7" cy="4" r="1.9"/>
<circle class="st0" cx="1020.1" cy="4" r="1.9"/>
<circle class="st0" cx="1030.4" cy="4" r="1.9"/>
<circle class="st0" cx="1040.7" cy="4" r="1.9"/>
<circle class="st0" cx="1051.1" cy="4" r="1.9"/>
<circle class="st0" cx="1061.4" cy="4" r="1.9"/>
<circle class="st0" cx="1009.7" cy="4" r="1.9"/>
<circle class="st0" cx="1020.1" cy="4" r="1.9"/>
<circle class="st0" cx="1030.4" cy="4" r="1.9"/>
<circle class="st0" cx="1040.7" cy="4" r="1.9"/>
<circle class="st0" cx="1051.1" cy="4" r="1.9"/>
<circle class="st0" cx="1061.4" cy="4" r="1.9"/>
<circle class="st0" cx="1071.8" cy="4" r="1.9"/>
<circle class="st0" cx="1082.1" cy="4" r="1.9"/>
<circle class="st0" cx="1092.4" cy="4" r="1.9"/>
<circle class="st0" cx="1102.8" cy="4" r="1.9"/>
<circle class="st0" cx="1113.1" cy="4" r="1.9"/>
<circle class="st0" cx="1123.5" cy="4" r="1.9"/>
<circle class="st0" cx="1133.8" cy="4" r="1.9"/>
<circle class="st0" cx="1144.2" cy="4" r="1.9"/>
<circle class="st0" cx="1154.5" cy="4" r="1.9"/>
<circle class="st0" cx="1164.8" cy="4" r="1.9"/>
<circle class="st0" cx="1175.2" cy="4" r="1.9"/>
<circle class="st0" cx="1133.8" cy="4" r="1.9"/>
<circle class="st0" cx="1144.2" cy="4" r="1.9"/>
<circle class="st0" cx="1154.5" cy="4" r="1.9"/>
<circle class="st0" cx="1164.8" cy="4" r="1.9"/>
<circle class="st0" cx="1175.2" cy="4" r="1.9"/>
<circle class="st0" cx="1184.9" cy="4" r="1.9"/>
<circle class="st0" cx="1195.2" cy="4" r="1.9"/>
<circle class="st0" cx="1205.6" cy="4" r="1.9"/>
<circle class="st0" cx="1215.9" cy="4" r="1.9"/>
<circle class="st0" cx="1226.2" cy="4" r="1.9"/>
<circle class="st0" cx="1215.9" cy="4" r="1.9"/>
<circle class="st0" cx="1226.2" cy="4" r="1.9"/>
</svg>
